COVID ANALYSIS
…
Renaming certain attributes to make the tibble more friendly.*

Joining the global_cases and global_deaths into global using a full joint

global_cases <- global_cases %>%
  pivot_longer(cols = -c(`Province/State`,
                         `Country/Region`, Lat, Long),
               names_to = "date",
               values_to = "cases") %>%
  select(-c(Lat,Long))  # removing lat, longs

print(global_cases)

## # A tibble: 169,911 x 4
##    `Province/State` `Country/Region` date    cases
##    <chr>            <chr>            <chr>   <dbl>
##  1 <NA>             Afghanistan      1/22/20     0
##  2 <NA>             Afghanistan      1/23/20     0
##  3 <NA>             Afghanistan      1/24/20     0
##  4 <NA>             Afghanistan      1/25/20     0
##  5 <NA>             Afghanistan      1/26/20     0
##  6 <NA>             Afghanistan      1/27/20     0
##  7 <NA>             Afghanistan      1/28/20     0
##  8 <NA>             Afghanistan      1/29/20     0
##  9 <NA>             Afghanistan      1/30/20     0
## 10 <NA>             Afghanistan      1/31/20     0
## # ... with 169,901 more rows
…
global <- global_cases %>%
  full_join(global_deaths) %>%
  rename(Country_Region = `Country/Region`,
         Province_State = `Province/State`) %>%
  mutate(date = mdy(date))

## Joining, by = c("Province/State", "Country/Region", "date")

print(global)

## # A tibble: 169,911 x 5
##    Province_State Country_Region date       cases deaths
##    <chr>          <chr>          <date>     <dbl>  <dbl>
##  1 <NA>           Afghanistan    2020-01-22     0      0
##  2 <NA>           Afghanistan    2020-01-23     0      0
##  3 <NA>           Afghanistan    2020-01-24     0      0
##  4 <NA>           Afghanistan    2020-01-25     0      0
##  5 <NA>           Afghanistan    2020-01-26     0      0
##  6 <NA>           Afghanistan    2020-01-27     0      0
##  7 <NA>           Afghanistan    2020-01-28     0      0
##  8 <NA>           Afghanistan    2020-01-29     0      0
##  9 <NA>           Afghanistan    2020-01-30     0      0
## 10 <NA>           Afghanistan    2020-01-31     0      0
## # ... with 169,901 more rows
…
# joining the US deathts and cases dataset
US <- US_cases %>%
  full_join(US_deaths)  

## Joining, by = c("Admin2", "Province_State", "Country_Region", "Combined_Key", "date")

print(US)

## # A tibble: 2,035,278 x 8
##    Admin2  Province_State Country_Region Combined_Key date       cases Population
##    <chr>   <chr>          <chr>          <chr>        <date>     <dbl>      <dbl>
##  1 Autauga Alabama        US             Autauga, Al~ 2020-01-22     0      55869
##  2 Autauga Alabama        US             Autauga, Al~ 2020-01-23     0      55869
##  3 Autauga Alabama        US             Autauga, Al~ 2020-01-24     0      55869
##  4 Autauga Alabama        US             Autauga, Al~ 2020-01-25     0      55869
##  5 Autauga Alabama        US             Autauga, Al~ 2020-01-26     0      55869
##  6 Autauga Alabama        US             Autauga, Al~ 2020-01-27     0      55869
##  7 Autauga Alabama        US             Autauga, Al~ 2020-01-28     0      55869
##  8 Autauga Alabama        US             Autauga, Al~ 2020-01-29     0      55869
##  9 Autauga Alabama        US             Autauga, Al~ 2020-01-30     0      55869
## 10 Autauga Alabama        US             Autauga, Al~ 2020-01-31     0      55869
## # ... with 2,035,268 more rows, and 1 more variable: deaths <dbl>
…
## Rows: 4196 Columns: 12

## -- Column specification --------------------------------------------------------
## Delimiter: ","
## chr (7): iso2, iso3, FIPS, Admin2, Province_State, Country_Region, Combined_Key
## dbl (5): UID, code3, Lat, Long_, Population

## 
## i Use `spec()` to retrieve the full column specification for this data.
## i Specify the column types or set `show_col_types = FALSE` to quiet this message.

print(uid)

## # A tibble: 4,196 x 5
##      UID FIPS  Province_State Country_Region      Population
##    <dbl> <chr> <chr>          <chr>                    <dbl>
##  1     4 <NA>  <NA>           Afghanistan           38928341
##  2     8 <NA>  <NA>           Albania                2877800
##  3    12 <NA>  <NA>           Algeria               43851043
##  4    20 <NA>  <NA>           Andorra                  77265
##  5    24 <NA>  <NA>           Angola                32866268
##  6    28 <NA>  <NA>           Antigua and Barbuda      97928
##  7    32 <NA>  <NA>           Argentina             45195777
##  8    51 <NA>  <NA>           Armenia                2963234
##  9    40 <NA>  <NA>           Austria                9006400
## 10    31 <NA>  <NA>           Azerbaijan            10139175
## # ... with 4,186 more rows

Adding the population data to the global dataset using left joint.

global <- global %>%
  left_join(uid, by = c("Province_State", "Country_Region")) %>%
  select(-c(UID, FIPS)) %>%
  select(Province_State, Country_Region, date, #selection in a particular order
         cases, deaths, Population,
         Combined_Key)
print(global)

## # A tibble: 153,895 x 7
##    Province_State Country_Region date       cases deaths Population Combined_Key
##    <chr>          <chr>          <date>     <dbl>  <dbl>      <dbl> <chr>       
##  1 <NA>           Afghanistan    2020-02-24     5      0   38928341 Afghanistan 
##  2 <NA>           Afghanistan    2020-02-25     5      0   38928341 Afghanistan 
##  3 <NA>           Afghanistan    2020-02-26     5      0   38928341 Afghanistan 
##  4 <NA>           Afghanistan    2020-02-27     5      0   38928341 Afghanistan 
##  5 <NA>           Afghanistan    2020-02-28     5      0   38928341 Afghanistan 
##  6 <NA>           Afghanistan    2020-02-29     5      0   38928341 Afghanistan 
##  7 <NA>           Afghanistan    2020-03-01     5      0   38928341 Afghanistan 
##  8 <NA>           Afghanistan    2020-03-02     5      0   38928341 Afghanistan 
##  9 <NA>           Afghanistan    2020-03-03     5      0   38928341 Afghanistan 
## 10 <NA>           Afghanistan    2020-03-04     5      0   38928341 Afghanistan 
## # ... with 153,885 more rows
…
US_totals <- US_by_state %>%
  group_by(Country_Region, date) %>%
  summarize(cases = sum(cases), deaths = sum(deaths),
            Population = sum(Population)) %>%
  mutate(deaths_per_mill = deaths *1000000 / Population) %>%
  select(Country_Region, date,
         cases, deaths, deaths_per_mill, Population) %>%
  ungroup()

## `summarise()` has grouped output by 'Country_Region'. You can override using the `.groups` argument.

print(US_totals)

## # A tibble: 609 x 6
##    Country_Region date       cases deaths deaths_per_mill Population
##    <chr>          <date>     <dbl>  <dbl>           <dbl>      <dbl>
##  1 US             2020-01-22     1      1         0.00300  332875137
##  2 US             2020-01-23     1      1         0.00300  332875137
##  3 US             2020-01-24     2      1         0.00300  332875137
##  4 US             2020-01-25     2      1         0.00300  332875137
##  5 US             2020-01-26     5      1         0.00300  332875137
##  6 US             2020-01-27     5      1         0.00300  332875137
##  7 US             2020-01-28     5      1         0.00300  332875137
##  8 US             2020-01-29     6      1         0.00300  332875137
##  9 US             2020-01-30     6      1         0.00300  332875137
## 10 US             2020-01-31     8      1         0.00300  332875137
## # ... with 599 more rows
…
#worst state data
US_state_totals %>% slice_max(cases_per_thou)

## # A tibble: 1 x 6
##   Province_State deaths   cases population cases_per_thou deaths_per_thou
##   <chr>           <dbl>   <dbl>      <dbl>          <dbl>           <dbl>
## 1 Tennessee       14441 1190689    6829174           174.            2.11

x_grid <- seq(1, 151)
new_df <- tibble(cases_per_thou = x_grid)
US_state_totals %>% mutate(pred = predict(mod))

## # A tibble: 55 x 7
##    Province_State  deaths  cases population cases_per_thou deaths_per_thou  pred
##    <chr>            <dbl>  <dbl>      <dbl>          <dbl>           <dbl> <dbl>
##  1 Alabama          13460 7.76e5    4903185          158.            2.75   2.34
##  2 Alaska             480 1.03e5     740995          139.            0.648  2.07
##  3 Arizona          19584 1.07e6    7278717          147.            2.69   2.18
##  4 Arkansas          7499 4.87e5    3017804          161.            2.48   2.39
##  5 California       68087 4.65e6   39512223          118.            1.72   1.76
##  6 Colorado          7428 6.55e5    5758736          114.            1.29   1.70
##  7 Connecticut       8477 3.86e5    3565287          108.            2.38   1.62
##  8 Delaware          1927 1.29e5     973764          132.            1.98   1.97
##  9 District of Co~   1171 5.97e4     705749           84.6           1.66   1.27
## 10 Florida          51889 3.53e6   21477737          164.            2.42   2.43
## # ... with 45 more rows
…
To find the top 5 worst hit nations on the basis of total cases. To find the top 5 nations with highest death rate (deaths per million population). *To Plot the covid -19 cases and deaths till date for a particular nation

Making a covid-19 data set of total cases and deaths till date for each country.

global_by_country_total <- global %>%
  group_by(Combined_Key) %>%
  summarize(cases = sum(cases), deaths = sum(deaths),
            Population = sum(Population)) %>%
  mutate(deaths_per_mill = deaths *1000000 / Population) %>%
  select(Combined_Key,
         cases, deaths, deaths_per_mill, Population) %>%
  ungroup()
print(global_by_country_total)

## # A tibble: 279 x 5
##    Combined_Key                  cases   deaths deaths_per_mill  Population
##    <chr>                         <dbl>    <dbl>           <dbl>       <dbl>
##  1 Afghanistan                32207579  1339999         59.8    22422724416
##  2 Albania                    35659318   660570        408.      1617323600
##  3 Alberta, Canada            56586905   620087        249.      2493427490
##  4 Algeria                    46687604  1336663         53.0    25214349725
##  5 Andorra                     4043707    46832       1065.        43963785
##  6 Angola                      9655335   235023         13.0    18109313668
##  7 Anguilla, United Kingdom      24686        1          0.123      8146086
##  8 Anhui, China                 592158     3533          0.0917 38513160000
##  9 Antigua and Barbuda          313853     9069        166.        54643824
## 10 Argentina                1050978296 23753939        925.     25671201336
## # ... with 269 more rows
…
global_by_country <- global %>%
  group_by(Combined_Key, date) %>%
  summarize(cases = sum(cases), deaths = sum(deaths),
            Population = sum(Population)) %>%
  mutate(deaths_per_mill = deaths *1000000 / Population) %>%
  select(Combined_Key, date,
         cases, deaths, deaths_per_mill, Population) %>%
  ungroup()

## `summarise()` has grouped output by 'Combined_Key'. You can override using the `.groups` argument.

print(global_by_country)

## # A tibble: 153,895 x 6
##    Combined_Key date       cases deaths deaths_per_mill Population
##    <chr>        <date>     <dbl>  <dbl>           <dbl>      <dbl>
##  1 Afghanistan  2020-02-24     5      0               0   38928341
##  2 Afghanistan  2020-02-25     5      0               0   38928341
##  3 Afghanistan  2020-02-26     5      0               0   38928341
##  4 Afghanistan  2020-02-27     5      0               0   38928341
##  5 Afghanistan  2020-02-28     5      0               0   38928341
##  6 Afghanistan  2020-02-29     5      0               0   38928341
##  7 Afghanistan  2020-03-01     5      0               0   38928341
##  8 Afghanistan  2020-03-02     5      0               0   38928341
##  9 Afghanistan  2020-03-03     5      0               0   38928341
## 10 Afghanistan  2020-03-04     5      0               0   38928341
## # ... with 153,885 more rows
…
